{
  "type": "tab",
  "id": "e0b9cac0.3c4618",
  "label": "Hello",
  "flow": [
    {
      "id": "813a9e36.73fbd",
      "type": "inject",
      "z": "e0b9cac0.3c4618",
      "name": "",
      "topic": "",
      "payload": "",
      "payloadType": "date",
      "repeat": "",
      "crontab": "",
      "once": false,
      "x": 120,
      "y": 60,
      "wires": [
        [
          "26bcbf8.63d8a4"
        ]
      ]
    },
    {
      "id": "26bcbf8.63d8a4",
      "type": "debug",
      "z": "e0b9cac0.3c4618",
      "name": "",
      "active": true,
      "console": "false",
      "complete": "false",
      "x": 370,
      "y": 60,
      "wires": []
    },
    {
      "id": "91f8ae5a.da0c8",
      "type": "http in",
      "z": "e0b9cac0.3c4618",
      "name": "",
      "url": "/service1",
      "method": "post",
      "swaggerDoc": "",
      "x": 130,
      "y": 160,
      "wires": [
        [
          "26bcbf8.63d8a4"
        ]
      ]
    },
    {
      "id": "6948d844.bd12e8",
      "type": "http response",
      "z": "e0b9cac0.3c4618",
      "name": "",
      "x": 370,
      "y": 80,
      "wires": []
    },
    {
      "id": "8016c912.367768",
      "type": "http request",
      "z": "e0b9cac0.3c4618",
      "name": "",
      "method": "POST",
      "ret": "txt",
      "url": "https://itotbox.redconnectapp.io/service1",
      "x": 290,
      "y": 280,
      "wires": [
        [
          "ee54e6ff.084f28"
        ]
      ]
    },
    {
      "id": "ee54e6ff.084f28",
      "type": "debug",
      "z": "e0b9cac0.3c4618",
      "name": "",
      "active": true,
      "console": "false",
      "complete": "false",
      "x": 470,
      "y": 280,
      "wires": []
    }
  ]
}